{
    "name": "code.fbi.h-da.de/danet/plugin-sbi",
    "go_version": "1.16",
    "dependencies": [
        {
            "name": "code.fbi.h-da.de/danet/api",
            "version": "0.2.5-0.20210722102157-e7e463162450"
        },
        {
            "name": "github.com/google/uuid",
            "version": "1.2.0"
        },
        {
            "name": "github.com/openconfig/gnmi",
            "version": "0.0.0-20210707145734-c69a5df04b53"
        },
        {
            "name": "github.com/openconfig/goyang",
            "version": "0.2.9"
        },
        {
            "name": "code.fbi.h-da.de/danet/forks/google",
            "version": "0.0.0-20210709163519-47ee8958ef40"
        },
        {
            "name": "code.fbi.h-da.de/danet/yang-models",
            "version": "0.1.0"
        },
        {
            "name": "github.com/openconfig/ygot",
            "version": "0.12.0"
        },
        {
            "name": "github.com/sirupsen/logrus",
            "version": "1.8.1"
        },
        {
            "name": "github.com/stretchr/objx",
            "version": "0.2.0"
        },
        {
            "name": "golang.org/x/exp",
            "version": "0.0.0-20191030013958-a1ab85dbe136"
        },
        {
            "name": "gopkg.in/yaml.v3",
            "version": "3.0.0-20210107192922-496545a6307b"
        },
        {
            "name": "cloud.google.com/go",
            "version": "0.46.3"
        },
        {
            "name": "google.golang.org/appengine",
            "version": "1.6.1"
        },
        {
            "name": "github.com/google/go-cmp",
            "version": "0.5.6"
        },
        {
            "name": "github.com/golang/mock",
            "version": "1.3.1"
        },
        {
            "name": "github.com/prometheus/client_model",
            "version": "0.2.0"
        },
        {
            "name": "gopkg.in/yaml.v2",
            "version": "2.4.0"
        },
        {
            "name": "golang.org/x/crypto",
            "version": "0.0.0-20210220033148-5ea612d1eb83"
        },
        {
            "name": "gopkg.in/check.v1",
            "version": "1.0.0-20201130134442-10cb98267c6c"
        },
        {
            "name": "honnef.co/go/tools",
            "version": "0.0.1-2019.2.3"
        },
        {
            "name": "github.com/prometheus/client_model",
            "version": "0.2.0"
        },
        {
            "name": "golang.org/x/sync",
            "version": "0.0.0-20210220032951-036812b2e83c"
        },
        {
            "name": "google.golang.org/protobuf",
            "version": "1.27.1"
        },
        {
            "name": "github.com/stretchr/testify",
            "version": "1.7.0"
        },
        {
            "name": "github.com/golang/glog",
            "version": "0.0.0-20210429001901-424d2337a529"
        },
        {
            "name": "golang.org/x/tools",
            "version": "0.1.4"
        },
        {
            "name": "google.golang.org/grpc",
            "version": "1.39.0"
        },
        {
            "name": "golang.org/x/lint",
            "version": "0.0.0-20210508222113-6edffad5e616"
        },
        {
            "name": "github.com/envoyproxy/go-control-plane",
            "version": "0.9.9-0.20210512163311-63b5d3c536b0"
        },
        {
            "name": "golang.org/x/oauth2",
            "version": "0.0.0-20200107190931-bf48bf16ab8d"
        },
        {
            "name": "golang.org/x/sys",
            "version": "0.0.0-20210630005230-0f9fa26af87c"
        },
        {
            "name": "google.golang.org/genproto",
            "version": "0.0.0-20210708141623-e76da96a951f"
        }
    ]
}